item_name,quantitiy,stock
Bangku Stole,1,23
Botol Squezer (Saus),2,
Box Take Away Hot Dog @50 pcs,2,3
Box Tupperware uk 10,2,3
Coklat Base 1 kg (Artisan Dark Chocolate Cocoa),2,3
Grass Jelly 1 kg (New Grass Herb),2,3
Macha P 500 gr (Green Tea Powder),2,3
Macha Powder 680 gr (Japanese Green Tea),2,
Macha Puding 1 kg ,2,3
Milk Puding 1 kg ,2,
tes,,3
